/resume/dd62f8fa0001d09b9f0039ed1f6d495a363733?hhtmFrom=resume_search_result
/resume/dd62f8fa0001d09b9f0039ed1f6d495a363733?hhtmFrom=resume_search_result
/resume/689776960006b9761f0039ed1f50654d596d58?hhtmFrom=resume_search_result
/resume/42d87ac80003b8ac680039ed1f4c5256334e30?hhtmFrom=resume_search_result
/resume/0e4bf91b00035b93d50039ed1f5a42556c774e?hhtmFrom=resume_search_result
/resume/7961359c00026bcfa50039ed1f4d4459384f48?hhtmFrom=resume_search_result
/resume/21645f180001f7d00e0039ed1f38717077386b?hhtmFrom=resume_search_result
/resume/9f5a74350006842f710039ed1f4b6d746a5179?hhtmFrom=resume_search_result
/resume/7d4d1b4600079585f60039ed1f644f38486b45?hhtmFrom=resume_search_result
/resume/c5ba0f340005a4cfba0039ed1f494854684551?hhtmFrom=resume_search_result
/resume/c9926b3e000251754d0039ed1f6d3671377a6b?hhtmFrom=resume_search_result
/resume/0e7969cc00075c0cfd0039ed1f52726c523035?hhtmFrom=resume_search_result
/resume/52af6c210002cdf9af0039ed1f745166434f78?hhtmFrom=resume_search_result
/resume/32eac2090003a3bcc10039ed1f774350693839?hhtmFrom=resume_search_result
/resume/819ca52200027a31b70039ed1f494b68443549?hhtmFrom=resume_search_result
/resume/22951e3f00015e3aa90039ed1f7656736c7932?hhtmFrom=resume_search_result
/resume/185123f2000200b8260039ed1f6a444a4c694c?hhtmFrom=resume_search_result
/resume/454986ed000206acf50039ed1f72637a785436?hhtmFrom=resume_search_result
/resume/0ebf715000021bfc960039ed1f7172524f6332?hhtmFrom=resume_search_result
/resume/06035c3700021dd1e40039ed1f497547726f5a?hhtmFrom=resume_search_result
/resume/09de6c2f000244e41e0039ed1f625870746a69?hhtmFrom=resume_search_result
/resume/cc26ce5200024d490d0039ed1f355067377a30?hhtmFrom=resume_search_result
/resume/3b47d92600026d3f4b0039ed1f36365a486961?hhtmFrom=resume_search_result
/resume/470e96d80002c1f0f50039ed1f54376c576c65?hhtmFrom=resume_search_result
/resume/467380850002cfd11c0039ed1f467a314a356b?hhtmFrom=resume_search_result
/resume/3dbec5620002ee190c0039ed1f765954384a48?hhtmFrom=resume_search_result
/resume/79a96752000306033c0039ed1f51417a51586c?hhtmFrom=resume_search_result
/resume/2da759c30003231e440039ed1f3942366e7867?hhtmFrom=resume_search_result
/resume/c8c1ccca000340953e0039ed1f4e7831717669?hhtmFrom=resume_search_result
/resume/eaef194000034bd8a80039ed1f766f4e584630?hhtmFrom=resume_search_result
/resume/c98eb7300003dca5710039ed1f553530786436?hhtmFrom=resume_search_result
/resume/2b37a2710003e508630039ed1f396977494e7a?hhtmFrom=resume_search_result
/resume/60a3910d000530bad70039ed1f445251657633?hhtmFrom=resume_search_result
/resume/487986bb00021c0c2c0039ed1f4d6f75715056?hhtmFrom=resume_search_result
/resume/89627805000248e9460039ed1f6b5236424344?hhtmFrom=resume_search_result
/resume/e9a44b3a0004f3a90e0039ed1f6a33596f6a6a?hhtmFrom=resume_search_result
/resume/16f475a1000218acc80039ed1f587a69634f72?hhtmFrom=resume_search_result
/resume/189ab9fc00035a91f30039ed1f367a72643658?hhtmFrom=resume_search_result
/resume/53abd9380003b502a80039ed1f6b3033797167?hhtmFrom=resume_search_result
/resume/a18df4bd0005184c410039ed1f59395a754d55?hhtmFrom=resume_search_result
/resume/56808ec20003dd83130039ed1f7736496f6750?hhtmFrom=resume_search_result
/resume/4a3b45080005ec670b0039ed1f5242346b5833?hhtmFrom=resume_search_result
/resume/12b50fff000206f06d0039ed1f573343446c35?hhtmFrom=resume_search_result
/resume/7fe07fde00021fa6c40039ed1f4c5637424870?hhtmFrom=resume_search_result
/resume/c643f1a700025890140039ed1f556132657376?hhtmFrom=resume_search_result
/resume/b2fe69d400026e671e0039ed1f744c34395737?hhtmFrom=resume_search_result
/resume/75a5ba610002d9f60e0039ed1f694950346a4f?hhtmFrom=resume_search_result
/resume/396c406f0002fac4250039ed1f384542735255?hhtmFrom=resume_search_result
/resume/6b265637000420891a0039ed1f58414d765a69?hhtmFrom=resume_search_result
/resume/f8ba95d400045e73c90039ed1f784e364b4668?hhtmFrom=resume_search_result
/resume/8e6c7759000510a8900039ed1f3938694a444c?hhtmFrom=resume_search_result
/resume/c12398300003a883a80039ed1f474179665234?hhtmFrom=resume_search_result
/resume/f3838b5e00070fc2bb0039ed1f525538503665?hhtmFrom=resume_search_result
/resume/8b240fa4000686ba030039ed1f4c5842445975?hhtmFrom=resume_search_result
/resume/417d33a70001cfdd190039ed1f47366d507546?hhtmFrom=resume_search_result
/resume/786e4038000449fc480039ed1f4f7753535565?hhtmFrom=resume_search_result
/resume/b1448df300018569660039ed1f5238544e4755?hhtmFrom=resume_search_result
/resume/75a8626600024b15990039ed1f676134544e5a?hhtmFrom=resume_search_result
/resume/f62564200002e102a90039ed1f4565667a4474?hhtmFrom=resume_search_result
/resume/1fa0cdf70003e076830039ed1f4d76484d4a4a?hhtmFrom=resume_search_result
/resume/b681340400076d5b010039ed1f335037566161?hhtmFrom=resume_search_result
/resume/5563d85e0003d848d40039ed1f75496257675a?hhtmFrom=resume_search_result
/resume/053f42a700018627910039ed1f5a4444547155?hhtmFrom=resume_search_result
/resume/a96e922500032858150039ed1f4c7550544a59?hhtmFrom=resume_search_result
/resume/6e81108b00022ee7c00039ed1f7a52434f644c?hhtmFrom=resume_search_result
/resume/9a286a74000739f4540039ed1f554d554c4e4a?hhtmFrom=resume_search_result
/resume/c84a5b970006fbce0f0039ed1f43644c564432?hhtmFrom=resume_search_result
/resume/443b58da00043f09910039ed1f7852774d6d6e?hhtmFrom=resume_search_result
/resume/3063ddaa000537f48d0039ed1f386a77624364?hhtmFrom=resume_search_result
/resume/108e6c6100035707f30039ed1f326a56797153?hhtmFrom=resume_search_result
/resume/0daa9bfe000328e9fc0039ed1f7a4479746973?hhtmFrom=resume_search_result
/resume/427ce43600036555d50039ed1f41785463524c?hhtmFrom=resume_search_result
/resume/3f16e4180000f4d8500039ed1f3238626b716a?hhtmFrom=resume_search_result
/resume/28a8831d000113774a0039ed1f477250477469?hhtmFrom=resume_search_result
/resume/733f6ac900017a583e0039ed1f543051734531?hhtmFrom=resume_search_result
/resume/268fbdaf0001a7e5160039ed1f4f464c41314f?hhtmFrom=resume_search_result
/resume/0082b6740001fd26220039ed1f4a556c444543?hhtmFrom=resume_search_result
/resume/cd8023e700023651d60039ed1f426734676f64?hhtmFrom=resume_search_result
/resume/acf869d200026648690039ed1f77344e494635?hhtmFrom=resume_search_result
/resume/2703081a0002d3b1b40039ed1f6f6f35693545?hhtmFrom=resume_search_result
/resume/0c5a33ff0002d78fa60039ed1f6c666944756e?hhtmFrom=resume_search_result
/resume/9f3c33ec0002dcfa670039ed1f3964617a427a?hhtmFrom=resume_search_result
/resume/c16801f10002e669cc0039ed1f303047427856?hhtmFrom=resume_search_result
/resume/813927880002ecff8e0039ed1f673957544337?hhtmFrom=resume_search_result
/resume/1ddca58600030fe4230039ed1f364769737a69?hhtmFrom=resume_search_result
/resume/aae0f194000334915a0039ed1f656d33707a53?hhtmFrom=resume_search_result
/resume/aa46a5600003775cca0039ed1f72766f554231?hhtmFrom=resume_search_result
/resume/8873fb6700038ec7820039ed1f333176457676?hhtmFrom=resume_search_result
/resume/00c43d54000398e3fb0039ed1f677565676963?hhtmFrom=resume_search_result
/resume/b10e39210003c393bb0039ed1f416376394c51?hhtmFrom=resume_search_result
/resume/488977e600043eb98d0039ed1f536831593146?hhtmFrom=resume_search_result
/resume/2e9a79f80004561b9e0039ed1f5a43624f6a37?hhtmFrom=resume_search_result
/resume/56e1e4d0000465ecc80039ed1f6f7030734d63?hhtmFrom=resume_search_result
/resume/1444495900047a74bf0039ed1f396b46394a6a?hhtmFrom=resume_search_result
/resume/c6735da50003e46f980039ed1f4f377a335271?hhtmFrom=resume_search_result
/resume/795bb40c000744149f0039ed1f44706b56376b?hhtmFrom=resume_search_result
/resume/c6faa8ef00020471800039ed1f4659464f4a5a?hhtmFrom=resume_search_result
/resume/287476e20005119f720039ed1f706537757761?hhtmFrom=resume_search_result
/resume/c18e1691000397c4560039ed1f5a5158696164?hhtmFrom=resume_search_result
/resume/e5e14e1e00020fa0810039ed1f6a335352354c?hhtmFrom=resume_search_result
/resume/06c473e30002689f550039ed1f4a4b494f5757?hhtmFrom=resume_search_result
/resume/935495a90002ede5ee0039ed1f6d5545666e47?hhtmFrom=resume_search_result
/resume/c33b218c0003a6e05c0039ed1f4571514b4b38?hhtmFrom=resume_search_result
/resume/7289446c00041d7c980039ed1f65546f765865?hhtmFrom=resume_search_result
/resume/5f32f87e000443bdc50039ed1f613176655135?hhtmFrom=resume_search_result
/resume/d63f01090004a021400039ed1f756a3436456e?hhtmFrom=resume_search_result
/resume/6c48cf6000037333680039ed1f5a707558796e?hhtmFrom=resume_search_result
/resume/2b373a1c00037e6ac90039ed1f615254383274?hhtmFrom=resume_search_result
/resume/158b73bb0003c0570c0039ed1f7938686d6c56?hhtmFrom=resume_search_result
/resume/9afeb0cb00015cf4dc0039ed1f4c3752614854?hhtmFrom=resume_search_result
/resume/369fa6f90001a65e870039ed1f327532686f32?hhtmFrom=resume_search_result
/resume/ef06855c000274c34f0039ed1f625544637077?hhtmFrom=resume_search_result
/resume/203d526d00039181570039ed1f596154643362?hhtmFrom=resume_search_result
/resume/e59446a00003fe56880039ed1f5666564c6f34?hhtmFrom=resume_search_result
/resume/6ffa2f4e0004453a860039ed1f464431514642?hhtmFrom=resume_search_result
/resume/e18b053d00011a1d260039ed1f53425630706b?hhtmFrom=resume_search_result
/resume/1611300600008859020039ed1f736563726574?hhtmFrom=resume_search_result
/resume/33de319300008bea040039ed1f736563726574?hhtmFrom=resume_search_result
/resume/7e1e097b0001af40610039ed1f6a6e4d467254?hhtmFrom=resume_search_result
/resume/f16e9d9800055726460039ed1f66774e394369?hhtmFrom=resume_search_result
/resume/de9924ea0003661fb50039ed1f474f71455631?hhtmFrom=resume_search_result
/resume/1e73ae190001b544a30039ed1f504646563238?hhtmFrom=resume_search_result
/resume/716b458f0001d3c9c80039ed1f563264564e73?hhtmFrom=resume_search_result
/resume/950fb14a0001fd89890039ed1f433544394a4c?hhtmFrom=resume_search_result
/resume/59312a490002068b130039ed1f39517431674c?hhtmFrom=resume_search_result
/resume/4f5bc11e0002242f710039ed1f7239584c3953?hhtmFrom=resume_search_result
/resume/57ac682600022f75330039ed1f594b59303571?hhtmFrom=resume_search_result
/resume/c46912e900024352d30039ed1f5378424d3149?hhtmFrom=resume_search_result
/resume/5563d3890002467e030039ed1f6e584c476c46?hhtmFrom=resume_search_result
/resume/ca4344fb00026809e40039ed1f5a7278337372?hhtmFrom=resume_search_result
/resume/a1daf4cb000276c3120039ed1f734b6c695173?hhtmFrom=resume_search_result
/resume/f64b68a30002d11abe0039ed1f437a6c5a3477?hhtmFrom=resume_search_result
/resume/03c4dbdb0002d84c400039ed1f516670663476?hhtmFrom=resume_search_result
/resume/d9f9bc840002e54a810039ed1f354b67536b51?hhtmFrom=resume_search_result
/resume/409baf6c000304bf270039ed1f63645642416f?hhtmFrom=resume_search_result
/resume/89fa38e400030fb1a30039ed1f4255734f4652?hhtmFrom=resume_search_result
/resume/623898ad000378a2900039ed1f36766961456c?hhtmFrom=resume_search_result
/resume/e14c3e9d0003857bda0039ed1f34476d486248?hhtmFrom=resume_search_result
/resume/1f5c6e78000393703f0039ed1f725357513975?hhtmFrom=resume_search_result
/resume/d37a74f60003a45ad50039ed1f396c5173644d?hhtmFrom=resume_search_result
/resume/f2baadcd00044b36df0039ed1f466872685851?hhtmFrom=resume_search_result
/resume/e5c40b940004982d4a0039ed1f69386c6a736c?hhtmFrom=resume_search_result
/resume/f6d81f3c00035e75440039ed1f4e364b4f7273?hhtmFrom=resume_search_result
/resume/c79a13140001a60c8a0039ed1f4a6c70486a63?hhtmFrom=resume_search_result
/resume/65ce80d000026045a30039ed1f6e305546514f?hhtmFrom=resume_search_result
/resume/4e84060e00026342a80039ed1f464458547a58?hhtmFrom=resume_search_result
/resume/1d1e994700028ba45e0039ed1f48764b345148?hhtmFrom=resume_search_result
/resume/10a841ff0002fa08790039ed1f53376f6d686d?hhtmFrom=resume_search_result
/resume/5a69e6e60003672f090039ed1f7a5357757632?hhtmFrom=resume_search_result
/resume/8aa2a07100037f9a230039ed1f616e6b563169?hhtmFrom=resume_search_result
/resume/84f028210003e5c5fc0039ed1f304153317147?hhtmFrom=resume_search_result
/resume/24302a7b0003e66e660039ed1f436c4c745678?hhtmFrom=resume_search_result
/resume/a80fc6b60003f4feea0039ed1f774d415a3868?hhtmFrom=resume_search_result
/resume/4eef1e410002d33d2a0039ed1f365851773143?hhtmFrom=resume_search_result
/resume/21f72cec0002df9e0d0039ed1f307536755366?hhtmFrom=resume_search_result
/resume/194b58ca00045bb0240039ed1f61724d58564f?hhtmFrom=resume_search_result
/resume/b57db2c8000561f18a0039ed1f6a634633686b?hhtmFrom=resume_search_result
/resume/d9e907840000ee23190039ed1f5a376f385862?hhtmFrom=resume_search_result
/resume/e7a6a0bd0000f4ae7c0039ed1f4f626d4f484d?hhtmFrom=resume_search_result
/resume/1b79aa050001b374dd0039ed1f5865745a3574?hhtmFrom=resume_search_result
/resume/b755beea0001fd06e30039ed1f6e347054746b?hhtmFrom=resume_search_result
/resume/7033040f000201f30c0039ed1f394964464168?hhtmFrom=resume_search_result
/resume/5212a0570002177f6c0039ed1f46386262744f?hhtmFrom=resume_search_result
/resume/0d9a350f0002280f710039ed1f70724b656761?hhtmFrom=resume_search_result
/resume/8f9ac17200024a8e8b0039ed1f444b787a7068?hhtmFrom=resume_search_result
/resume/88a824f000024c93d70039ed1f63374c735334?hhtmFrom=resume_search_result
/resume/c00b760d00024e40d90039ed1f6b366349636c?hhtmFrom=resume_search_result
/resume/9d2706e000024ed3c30039ed1f703950784e35?hhtmFrom=resume_search_result
/resume/794346640002512ad20039ed1f386a644b4f57?hhtmFrom=resume_search_result
/resume/042771d200027ba1dd0039ed1f774152474b34?hhtmFrom=resume_search_result
/resume/3102625700027d98420039ed1f594259516431?hhtmFrom=resume_search_result
/resume/0d7e0641000280bbb70039ed1f315574576645?hhtmFrom=resume_search_result
/resume/45e40d24000295c1e40039ed1f436b6a485954?hhtmFrom=resume_search_result
/resume/cb8a61c200029a551f0039ed1f663870423956?hhtmFrom=resume_search_result
/resume/b2c5cb540002a2ef010039ed1f45786e38746f?hhtmFrom=resume_search_result
/resume/24796f850002ae2e520039ed1f553256363570?hhtmFrom=resume_search_result
/resume/adbd793e0002c5087a0039ed1f50504c6e4b69?hhtmFrom=resume_search_result
/resume/9ba16c850002de73140039ed1f317732683246?hhtmFrom=resume_search_result
/resume/4fb3d32e000300fbeb0039ed1f66394b675474?hhtmFrom=resume_search_result
/resume/8147fc9a00031722e10039ed1f323130767063?hhtmFrom=resume_search_result
/resume/5ebdfb0500032357990039ed1f30464e54495a?hhtmFrom=resume_search_result
/resume/abafa979000329eb0a0039ed1f68616f6f4877?hhtmFrom=resume_search_result
/resume/4dafa3f200034bbb3d0039ed1f48633068616d?hhtmFrom=resume_search_result
/resume/e677b39700036a6d460039ed1f556377777261?hhtmFrom=resume_search_result
/resume/64fac66500036fb5190039ed1f43634e574c70?hhtmFrom=resume_search_result
/resume/51bc77cb00037d75b40039ed1f5a78414b6248?hhtmFrom=resume_search_result
/resume/9e6bce8600038992bc0039ed1f484e69756944?hhtmFrom=resume_search_result
/resume/c93c13cb0003e17c440039ed1f6c6563644e59?hhtmFrom=resume_search_result
/resume/08bf3a480003ecbfa30039ed1f663875666831?hhtmFrom=resume_search_result
/resume/e265e9eb0003f478c40039ed1f79616b536669?hhtmFrom=resume_search_result
/resume/3372d87100043266640039ed1f724f616f7a33?hhtmFrom=resume_search_result
/resume/9dd162ff000451ead90039ed1f614f5663664a?hhtmFrom=resume_search_result
/resume/6bdc87800004fab4bd0039ed1f784842567337?hhtmFrom=resume_search_result
/resume/490502e400050713ef0039ed1f7879474c5246?hhtmFrom=resume_search_result
/resume/3c5864330005148bdb0039ed1f615a70785939?hhtmFrom=resume_search_result
/resume/90bfd26c0005ef304f0039ed1f764533306662?hhtmFrom=resume_search_result
/resume/ace06777000193956c0039ed1f4a7264317a4c?hhtmFrom=resume_search_result
/resume/469329670003fde6ec0039ed1f374435375838?hhtmFrom=resume_search_result
/resume/af7e15650001859a040039ed1f5a7449623345?hhtmFrom=resume_search_result
/resume/890365f1000198beeb0039ed1f41504c465a31?hhtmFrom=resume_search_result
/resume/600dc65c00019a084b0039ed1f594234486446?hhtmFrom=resume_search_result
/resume/faac1e1400019a8a830039ed1f4f694e716a42?hhtmFrom=resume_search_result
/resume/d65073740001a503860039ed1f346e546f774f?hhtmFrom=resume_search_result
/resume/cd7f97570001b1f8450039ed1f6b5644385174?hhtmFrom=resume_search_result
/resume/fdb072130001ea0a960039ed1f7462374a654d?hhtmFrom=resume_search_result
/resume/a15c7889000232820b0039ed1f706434574f48?hhtmFrom=resume_search_result
/resume/c66953a100023778120039ed1f4b7339694465?hhtmFrom=resume_search_result
/resume/a3a2323d00023f20380039ed1f53306f744951?hhtmFrom=resume_search_result
/resume/80d882c000024229ee0039ed1f505172644552?hhtmFrom=resume_search_result
/resume/eb7847f000024d26690039ed1f4e4a47353467?hhtmFrom=resume_search_result
/resume/3cc3724600024efbbc0039ed1f65614d734551?hhtmFrom=resume_search_result
/resume/2ccfe9ce00025d0e1a0039ed1f586274763136?hhtmFrom=resume_search_result
/resume/9e8bbff800026835920039ed1f43497072784a?hhtmFrom=resume_search_result
/resume/c23db5230002700c710039ed1f775134716145?hhtmFrom=resume_search_result
/resume/d602e96e000278d8970039ed1f47683950576e?hhtmFrom=resume_search_result
/resume/4082b14c00028312070039ed1f375446307436?hhtmFrom=resume_search_result
/resume/d8704bf40002866bc60039ed1f55596f55524d?hhtmFrom=resume_search_result
/resume/3c254be100028bd7040039ed1f643372676e49?hhtmFrom=resume_search_result
/resume/61a0cc330002932ed80039ed1f3948556e4c31?hhtmFrom=resume_search_result
/resume/507d61410002986c790039ed1f774b64513149?hhtmFrom=resume_search_result
/resume/3858ef9b0002a74f520039ed1f73314133756b?hhtmFrom=resume_search_result
/resume/c0f2cbc40002abac630039ed1f446e59716e59?hhtmFrom=resume_search_result
/resume/87dc3ec80002afec850039ed1f49316e435363?hhtmFrom=resume_search_result
/resume/05f2a0710002b062410039ed1f7a4a6a74756d?hhtmFrom=resume_search_result
/resume/43778b130002e0c4e00039ed1f5a4961745065?hhtmFrom=resume_search_result
/resume/9f1eeec6000302266e0039ed1f433271323351?hhtmFrom=resume_search_result
/resume/20e0471c000309fbba0039ed1f777051334f4f?hhtmFrom=resume_search_result
/resume/7409baf400032194a10039ed1f507044447852?hhtmFrom=resume_search_result
/resume/d8d0f3d00003383fd30039ed1f6971464b6779?hhtmFrom=resume_search_result
/resume/181cb1800003402dcf0039ed1f533958327146?hhtmFrom=resume_search_result
/resume/fae29cf3000340801e0039ed1f304b71776147?hhtmFrom=resume_search_result
/resume/286eb628000344c5270039ed1f4a3173575766?hhtmFrom=resume_search_result
/resume/032117f700034f5f4c0039ed1f703464594468?hhtmFrom=resume_search_result
/resume/042a81a50003653e9d0039ed1f547444426433?hhtmFrom=resume_search_result
/resume/e9bb5a21000373ba4f0039ed1f734537444869?hhtmFrom=resume_search_result
/resume/294c1e1f000391ba2b0039ed1f735337523834?hhtmFrom=resume_search_result
/resume/ef04d83100046276910039ed1f6a3151384679?hhtmFrom=resume_search_result
/resume/21609a4c0004f554380039ed1f64313978756a?hhtmFrom=resume_search_result
/resume/f5568e85000528c0c10039ed1f764739356878?hhtmFrom=resume_search_result
/resume/dbe306aa0007935c5a0039ed1f70455a324137?hhtmFrom=resume_search_result
/resume/90532c100001892db40039ed1f766d49343968?hhtmFrom=resume_search_result
/resume/fd20ce3b0001e57b370039ed1f326e79364d51?hhtmFrom=resume_search_result
/resume/ddda99a800021acf940039ed1f714b625a446b?hhtmFrom=resume_search_result
/resume/45c118f600026c18680039ed1f376a4c55346b?hhtmFrom=resume_search_result
/resume/6b48324c00040a108c0039ed1f686a42364674?hhtmFrom=resume_search_result
/resume/a1e47f140007d2219b0039ed1f465972395372?hhtmFrom=resume_search_result
/resume/22cca110000227f9b10039ed1f4a367a767147?hhtmFrom=resume_search_result
/resume/8743cc02000153c0df0039ed1f7a534936715a?hhtmFrom=resume_search_result
/resume/cea0f6590001c7c6600039ed1f59464238676f?hhtmFrom=resume_search_result
/resume/756bb78f0002b2d5330039ed1f43394c6c7a78?hhtmFrom=resume_search_result
/resume/679e1fed0003e48ed30039ed1f6c465a434957?hhtmFrom=resume_search_result
/resume/d87adfb00003f053a40039ed1f77647a67754b?hhtmFrom=resume_search_result
/resume/dd9dae670004219c320039ed1f487448337964?hhtmFrom=resume_search_result
/resume/c37656df0004344fac0039ed1f653737415439?hhtmFrom=resume_search_result
/resume/29ec534800043aa3fb0039ed1f723944666456?hhtmFrom=resume_search_result
/resume/15c9c3d900043c075c0039ed1f565565434242?hhtmFrom=resume_search_result
/resume/6dd7ec06000517aed00039ed1f3565414f7941?hhtmFrom=resume_search_result
/resume/a16a69b200053e61780039ed1f504b32766d37?hhtmFrom=resume_search_result
/resume/86d31b420002426fed0039ed1f6d746a68566f?hhtmFrom=resume_search_result
/resume/6480691800027776960039ed1f356965453377?hhtmFrom=resume_search_result
/resume/5bc7592f00043a878d0039ed1f67425755414d?hhtmFrom=resume_search_result
/resume/93a4e9d4000518ca820039ed1f4a734c567847?hhtmFrom=resume_search_result
/resume/00d8b4f00007519cf60039ed1f3742324f5546?hhtmFrom=resume_search_result
/resume/7bab41c10002f7b7dd0039ed1f746c63796270?hhtmFrom=resume_search_result
/resume/8aae9ca10002e09f860039ed1f444a72533459?hhtmFrom=resume_search_result
/resume/fd0fdd350001318bee0039ed1f76487a344236?hhtmFrom=resume_search_result
/resume/f1244d500001fa40a40039ed1f7565516a6177?hhtmFrom=resume_search_result
/resume/5733a9cf0003055eff0039ed1f48663477757a?hhtmFrom=resume_search_result
/resume/344e753e0003075ab50039ed1f49494f783379?hhtmFrom=resume_search_result
/resume/a38d6d7d00037f168f0039ed1f423654564636?hhtmFrom=resume_search_result
/resume/eb57d7f4000524b3140039ed1f71466a464862?hhtmFrom=resume_search_result
/resume/60b0dccd00053262ff0039ed1f446f554d4243?hhtmFrom=resume_search_result
/resume/9cb7063f000623be400039ed1f586759346676?hhtmFrom=resume_search_result
/resume/d7fa12ad000316a7c60039ed1f4e45334d484d?hhtmFrom=resume_search_result
/resume/cb1f707d00031e5cdb0039ed1f705579506148?hhtmFrom=resume_search_result
/resume/4761c40900040149cd0039ed1f42494a766e65?hhtmFrom=resume_search_result
/resume/27865f850005e207790039ed1f645844577863?hhtmFrom=resume_search_result
/resume/cfb8cd840003b43ac60039ed1f6e4e796d3355?hhtmFrom=resume_search_result
/resume/e8de4d8000019e201c0039ed1f437442364c6f?hhtmFrom=resume_search_result
/resume/4c9250f200020190c10039ed1f6e564a525141?hhtmFrom=resume_search_result
/resume/a76f9f990007a10e520039ed1f3231577a3262?hhtmFrom=resume_search_result
/resume/5777723900064029b70039ed1f7a4a68346549?hhtmFrom=resume_search_result
/resume/4cdcd4580001c82c5f0039ed1f6e354d314a6d?hhtmFrom=resume_search_result
/resume/47fd78c500036c24aa0039ed1f52584c646268?hhtmFrom=resume_search_result
/resume/9de99f3a0003e63ca50039ed1f5863355a4452?hhtmFrom=resume_search_result
/resume/c11f664e0002ae63cb0039ed1f544752523343?hhtmFrom=resume_search_result
/resume/342873b90005075f0d0039ed1f51566248785a?hhtmFrom=resume_search_result
/resume/a5043cdb00072e98240039ed1f486b48356e4a?hhtmFrom=resume_search_result
/resume/eeeb281100045a93310039ed1f664852506a57?hhtmFrom=resume_search_result
/resume/30c2671800019e7d480039ed1f344d48425853?hhtmFrom=resume_search_result
/resume/6afdaf3f000228d6e80039ed1f784751763150?hhtmFrom=resume_search_result
/resume/a4f97b4f000251d2780039ed1f647958383176?hhtmFrom=resume_search_result
/resume/07e2ca2e000261090f0039ed1f39564c6c566b?hhtmFrom=resume_search_result
/resume/386bc3610002651f2f0039ed1f397472654e48?hhtmFrom=resume_search_result
/resume/673a59780002697fa20039ed1f51584f737775?hhtmFrom=resume_search_result
/resume/6de21ca200027c680b0039ed1f695336367131?hhtmFrom=resume_search_result
/resume/35bc33830002c075230039ed1f614d497a454d?hhtmFrom=resume_search_result
/resume/33bd036d0002d38ddc0039ed1f396175784f52?hhtmFrom=resume_search_result
/resume/c604c1b30002ded80e0039ed1f537835545869?hhtmFrom=resume_search_result
/resume/0d5527cc0002f438000039ed1f4d3047784936?hhtmFrom=resume_search_result
/resume/befe21e30002fc99050039ed1f625a79793755?hhtmFrom=resume_search_result
/resume/0c8e3a0c00030a636e0039ed1f425141387633?hhtmFrom=resume_search_result
/resume/91074f8e0003234cb10039ed1f57464a655166?hhtmFrom=resume_search_result
/resume/27ea482d000330f6ab0039ed1f4c38556e6770?hhtmFrom=resume_search_result
/resume/fdf500a200041a3c570039ed1f5472634d7845?hhtmFrom=resume_search_result
/resume/f5b6a298000437412f0039ed1f617754434f48?hhtmFrom=resume_search_result
/resume/aea6398600050312290039ed1f51456163426c?hhtmFrom=resume_search_result
/resume/e7205ac0000505ad1b0039ed1f314467667136?hhtmFrom=resume_search_result
/resume/226be08d00051372cc0039ed1f6b4c44504241?hhtmFrom=resume_search_result
/resume/aaac7ceb000536afb30039ed1f674e76385547?hhtmFrom=resume_search_result
/resume/10f249f100016ef59f0039ed1f664a32426768?hhtmFrom=resume_search_result
/resume/4ed65adf0002b0292f0039ed1f79393332736b?hhtmFrom=resume_search_result
/resume/2104f656000500f7d90039ed1f485a4b4f6d6a?hhtmFrom=resume_search_result
/resume/ec460e4b00008aa8180039ed1f736563726574?hhtmFrom=resume_search_result
/resume/8ffd68260007dd5cb50039ed1f37447559754f?hhtmFrom=resume_search_result
/resume/14f6eb110006595bd70039ed1f4658784a5950?hhtmFrom=resume_search_result
/resume/641a22ed00016ef4a80039ed1f747870666f49?hhtmFrom=resume_search_result
/resume/ee59599b0001873b4a0039ed1f77655743686e?hhtmFrom=resume_search_result
/resume/5e75f3d60002535a350039ed1f6334696e7236?hhtmFrom=resume_search_result
/resume/d6e4da1a00026aaae40039ed1f655349464c44?hhtmFrom=resume_search_result
/resume/2813c54d0003131c5f0039ed1f55725a613235?hhtmFrom=resume_search_result
/resume/848cccc100065765310039ed1f353152446672?hhtmFrom=resume_search_result
/resume/06f7f8c200021639d30039ed1f677578443946?hhtmFrom=resume_search_result
/resume/335beecf00023265bb0039ed1f68746a505139?hhtmFrom=resume_search_result
/resume/6256d08b000144493e0039ed1f35336d62444a?hhtmFrom=resume_search_result
/resume/46f707bd000218e6bc0039ed1f346738476c31?hhtmFrom=resume_search_result
/resume/164d2d0b00023ce34f0039ed1f46374a354272?hhtmFrom=resume_search_result
/resume/39abe7f800036c1e050039ed1f79416657476e?hhtmFrom=resume_search_result
/resume/2cb4d649000275d4280039ed1f384538356b62?hhtmFrom=resume_search_result
/resume/05b017d800042f18e60039ed1f567a6f784859?hhtmFrom=resume_search_result
/resume/763ac8700004d7259e0039ed1f54415a497441?hhtmFrom=resume_search_result
/resume/ceebdfaa000455e6420039ed1f68716c73656f?hhtmFrom=resume_search_result
/resume/abd9918800042d27df0039ed1f486a4e51687a?hhtmFrom=resume_search_result
/resume/7d7d02410004d342090039ed1f655136725550?hhtmFrom=resume_search_result
/resume/fded29db00037e167b0039ed1f3650574b7539?hhtmFrom=resume_search_result
/resume/b9d2f4e90004da6a880039ed1f576e31644637?hhtmFrom=resume_search_result
/resume/125f846b000210956f0039ed1f3877375a4d45?hhtmFrom=resume_search_result
/resume/d47bd1230004d940430039ed1f423033617130?hhtmFrom=resume_search_result
/resume/e3d20a600003c802970039ed1f6f416e6e346e?hhtmFrom=resume_search_result
/resume/6a7b170c00048c8ce10039ed1f514d4f54667a?hhtmFrom=resume_search_result
/resume/7fca2af900051968140039ed1f424638346646?hhtmFrom=resume_search_result
/resume/4dce34b10003620fca0039ed1f575246654666?hhtmFrom=resume_search_result
/resume/43c0060800063113080039ed1f473136554556?hhtmFrom=resume_search_result
/resume/5ded00b400038238a40039ed1f493734534551?hhtmFrom=resume_search_result
/resume/297f600000056863ba0039ed1f585442746536?hhtmFrom=resume_search_result
/resume/afd1d64400048c8cde0039ed1f6e307044346a?hhtmFrom=resume_search_result
/resume/5c1f150c0001a2136d0039ed1f4237426e3141?hhtmFrom=resume_search_result
/resume/1937ed680004b2fb690039ed1f37476c59645a?hhtmFrom=resume_search_result
/resume/c3c9b7fb0004434b5a0039ed1f4f4149353166?hhtmFrom=resume_search_result
/resume/9d2597cb0001b9e7c30039ed1f4a6d67346a48?hhtmFrom=resume_search_result
/resume/a832e9370003f88d3f0039ed1f4f4d32504943?hhtmFrom=resume_search_result
/resume/5108f03300059955e10039ed1f61394a6a4635?hhtmFrom=resume_search_result
/resume/a48cb38300014ea7990039ed1f566a744a344f?hhtmFrom=resume_search_result
/resume/988a8f3600013471920039ed1f357138325838?hhtmFrom=resume_search_result
/resume/7c1d3af70001aac4630039ed1f316274527447?hhtmFrom=resume_search_result
/resume/7d11bcab0001e337a00039ed1f43694139657a?hhtmFrom=resume_search_result
/resume/9fd3257200023d4cd50039ed1f707a41616d45?hhtmFrom=resume_search_result
/resume/09986d5100032d5f6f0039ed1f544e44686c74?hhtmFrom=resume_search_result
/resume/45bce1890003a963c80039ed1f5a3351355142?hhtmFrom=resume_search_result
/resume/85bfc9c30003fd895c0039ed1f786e53356933?hhtmFrom=resume_search_result
/resume/f7ebf53f00046e9c6f0039ed1f546d524e5038?hhtmFrom=resume_search_result
/resume/558f10c7000784ce580039ed1f533931533456?hhtmFrom=resume_search_result
/resume/8505b2cd0000e767170039ed1f586857356b54?hhtmFrom=resume_search_result
/resume/087b76df00024175130039ed1f4c7738793769?hhtmFrom=resume_search_result
/resume/2bc3917200024cfd960039ed1f535257567243?hhtmFrom=resume_search_result
/resume/8d3bc57b00026a90f20039ed1f763342583374?hhtmFrom=resume_search_result
/resume/1b6485d50002c2c1a50039ed1f6e51334d5838?hhtmFrom=resume_search_result
/resume/2adc3b0a0001806f880039ed1f6b684f434465?hhtmFrom=resume_search_result
/resume/70f77b840002afa82f0039ed1f32366c524f6c?hhtmFrom=resume_search_result
/resume/732624670002db92710039ed1f734353775833?hhtmFrom=resume_search_result
/resume/249968480005a5314e0039ed1f7a4832574d64?hhtmFrom=resume_search_result
/resume/db606a020001d29f420039ed1f423678566470?hhtmFrom=resume_search_result
/resume/b5c27256000205ca6d0039ed1f7a46474b6545?hhtmFrom=resume_search_result
/resume/43a676d3000374fcb60039ed1f303672644f33?hhtmFrom=resume_search_result
/resume/4abb2aaf00043479ba0039ed1f54326b69327a?hhtmFrom=resume_search_result
/resume/431b52ee00031b8b0d0039ed1f684355314238?hhtmFrom=resume_search_result
/resume/0a542c0b0000540eef0039ed1f736563726574?hhtmFrom=resume_search_result
/resume/f9b64c330000e204dd0039ed1f773037744e58?hhtmFrom=resume_search_result
/resume/427ea11800019ff2580039ed1f50696f4e6a61?hhtmFrom=resume_search_result
/resume/7cee8b42000217a9890039ed1f683677483536?hhtmFrom=resume_search_result
/resume/bd66e53c0002aa266e0039ed1f555971334647?hhtmFrom=resume_search_result
/resume/317a76940002f8953b0039ed1f794e38414433?hhtmFrom=resume_search_result
/resume/2db8f8e800041713760039ed1f573134513176?hhtmFrom=resume_search_result
/resume/d226769800068fef170039ed1f576d514f5342?hhtmFrom=resume_search_result
/resume/86e09f8300071b21230039ed1f75336c4e626d?hhtmFrom=resume_search_result
/resume/91c0546200026bc3bd0039ed1f596d79735667?hhtmFrom=resume_search_result
/resume/0ca69fa600018002ff0039ed1f314d524e7056?hhtmFrom=resume_search_result
/resume/22c21bd30006bf27170039ed1f4c51564b676e?hhtmFrom=resume_search_result
/resume/5d573328000339cdc10039ed1f6f634f4a3532?hhtmFrom=resume_search_result
/resume/36ec23d500009425230039ed1f736563726574?hhtmFrom=resume_search_result
/resume/4d499e1d0001abf8780039ed1f6f6d74735474?hhtmFrom=resume_search_result
/resume/9654e1080002e9b3df0039ed1f7857457a7758?hhtmFrom=resume_search_result
/resume/ddc58af400033754ee0039ed1f3253436f4533?hhtmFrom=resume_search_result
/resume/a8d2681d00033c20a40039ed1f355077526262?hhtmFrom=resume_search_result
/resume/38d4b93d0003c83a1e0039ed1f643736706c51?hhtmFrom=resume_search_result
/resume/77046c900003efed870039ed1f3359634b4d66?hhtmFrom=resume_search_result
/resume/750e227400041165ce0039ed1f374436684151?hhtmFrom=resume_search_result
/resume/333b4e1f00042f5ab00039ed1f56674755584a?hhtmFrom=resume_search_result
/resume/2768a88100049dcd760039ed1f305a52717041?hhtmFrom=resume_search_result
/resume/f04bfedf0002339ab20039ed1f35386f697259?hhtmFrom=resume_search_result
/resume/8ab5761a0003df30e80039ed1f4d3861656341?hhtmFrom=resume_search_result
/resume/920ff0cf00028fdc950039ed1f6171594e4153?hhtmFrom=resume_search_result
/resume/a0ad172d00048996580039ed1f706238726b39?hhtmFrom=resume_search_result
/resume/75ddbb6c00015396120039ed1f4a4162784a75?hhtmFrom=resume_search_result
/resume/586b439200028b09e70039ed1f547165477037?hhtmFrom=resume_search_result
/resume/3810af410005f0bbb80039ed1f45644d725431?hhtmFrom=resume_search_result
/resume/796e83130005da86c00039ed1f534679765258?hhtmFrom=resume_search_result
/resume/5e123d440001fb43ea0039ed1f625251785446?hhtmFrom=resume_search_result
/resume/4d76367600078a3b790039ed1f5a4e76445447?hhtmFrom=resume_search_result
/resume/2f28cfa7000333bbb30039ed1f4d394e416a74?hhtmFrom=resume_search_result
/resume/ad5f5d940003ee09030039ed1f74646c5a4244?hhtmFrom=resume_search_result
/resume/e1128fb90006156ca60039ed1f365a4c626252?hhtmFrom=resume_search_result
/resume/67c1640a000351ef4f0039ed1f6b69646d4373?hhtmFrom=resume_search_result
/resume/b172566600074b0a710039ed1f616162503861?hhtmFrom=resume_search_result
/resume/a198a84500067c2a320039ed1f614259353751?hhtmFrom=resume_search_result
/resume/c3b8f9a600036c85bd0039ed1f416734627569?hhtmFrom=resume_search_result
/resume/e73f9ad50005ee1ff40039ed1f753463416f34?hhtmFrom=resume_search_result
/resume/cc8d15fc00004c71170039ed1f736563726574?hhtmFrom=resume_search_result
/resume/a29b508e0000a58b580039ed1f736563726574?hhtmFrom=resume_search_result
/resume/db0323080001106b1b0039ed1f787769544a72?hhtmFrom=resume_search_result
/resume/ad1ef7e50001216b540039ed1f665534786833?hhtmFrom=resume_search_result
/resume/8dfee67e0001572f710039ed1f54494d7a3467?hhtmFrom=resume_search_result
/resume/e3ed9add000170e6960039ed1f44364e544441?hhtmFrom=resume_search_result
/resume/62bc77ec00017becf50039ed1f77464567754b?hhtmFrom=resume_search_result
/resume/8cd13a1e0001998d780039ed1f634f5532676b?hhtmFrom=resume_search_result
/resume/b719aaae0001c3827f0039ed1f62364d363242?hhtmFrom=resume_search_result
/resume/2a0510460001c4dd090039ed1f446764763141?hhtmFrom=resume_search_result
/resume/0e0e22ed0001c8908b0039ed1f47576e505375?hhtmFrom=resume_search_result
/resume/ec2a1dfd0001cc3a620039ed1f47706d61464b?hhtmFrom=resume_search_result
/resume/1000e0160001dd17f60039ed1f354254797869?hhtmFrom=resume_search_result
/resume/f1c968c100020578e40039ed1f4156646e6b4f?hhtmFrom=resume_search_result
/resume/b7013f5e000210dfd00039ed1f645234787475?hhtmFrom=resume_search_result
/resume/3ddce2f70002148b9c0039ed1f56726c4d5133?hhtmFrom=resume_search_result
/resume/bc080b3500022304040039ed1f654d794c4b66?hhtmFrom=resume_search_result
/resume/ac4a1b0a00023c00310039ed1f46686369324f?hhtmFrom=resume_search_result
/resume/f38891bd000252f0f10039ed1f696c3931724e?hhtmFrom=resume_search_result
/resume/1d3304df00027495b50039ed1f434251443570?hhtmFrom=resume_search_result
/resume/2bf79cea000285af7b0039ed1f3666694d7755?hhtmFrom=resume_search_result
/resume/a8ed99e40002c4a2270039ed1f304568505565?hhtmFrom=resume_search_result
/resume/9e5526140002c5228e0039ed1f4c4b54475674?hhtmFrom=resume_search_result
/resume/b548e0950002eacfae0039ed1f74664f653242?hhtmFrom=resume_search_result
/resume/ecc5667a0002f2ef660039ed1f39505734734c?hhtmFrom=resume_search_result
/resume/e2056969000311a71f0039ed1f4f324a376d64?hhtmFrom=resume_search_result
/resume/969923d300034e3e680039ed1f707758586331?hhtmFrom=resume_search_result
/resume/673f2703000353658f0039ed1f4a6958744b37?hhtmFrom=resume_search_result
/resume/e98c6e6a00035633490039ed1f4f7269626273?hhtmFrom=resume_search_result
/resume/136972b100037129d10039ed1f6b497059374d?hhtmFrom=resume_search_result
/resume/e4c2514300039123970039ed1f307357714b57?hhtmFrom=resume_search_result
/resume/fce1c6190003d02f2b0039ed1f4f67636c5962?hhtmFrom=resume_search_result
/resume/b65f9edd0003df2b430039ed1f35376e523969?hhtmFrom=resume_search_result
/resume/62dd617f000425459c0039ed1f774855466661?hhtmFrom=resume_search_result
/resume/e1f80be900043243230039ed1f654979777543?hhtmFrom=resume_search_result
/resume/54e658180004348dac0039ed1f42674a436636?hhtmFrom=resume_search_result
/resume/9b4907440004a575b00039ed1f784364637853?hhtmFrom=resume_search_result
/resume/938273410004d29a440039ed1f697a356e5651?hhtmFrom=resume_search_result
/resume/277b35aa0004e890b60039ed1f45557170566a?hhtmFrom=resume_search_result
/resume/4984b63c0004f9175a0039ed1f325a4f424e4a?hhtmFrom=resume_search_result
/resume/719ea8bc000317bad90039ed1f4a4c754c5632?hhtmFrom=resume_search_result
/resume/9ff1e9d0000251003e0039ed1f4f5461396e55?hhtmFrom=resume_search_result
/resume/4f7051460002c289120039ed1f645970435679?hhtmFrom=resume_search_result
/resume/a091f5730001f806f30039ed1f54624230384d?hhtmFrom=resume_search_result
/resume/b57e4ec30003d503dd0039ed1f5a5052597a45?hhtmFrom=resume_search_result
/resume/46525bf10003ba677c0039ed1f5452596b4647?hhtmFrom=resume_search_result
/resume/249040240002a2f89f0039ed1f396468635854?hhtmFrom=resume_search_result
/resume/5a1b8e9f000030ffb70039ed1f736563726574?hhtmFrom=resume_search_result
/resume/db4019050000b72cb10039ed1f736563726574?hhtmFrom=resume_search_result
/resume/0164bcb700015186300039ed1f787a6f6b6872?hhtmFrom=resume_search_result
/resume/e608766f0001649dbf0039ed1f50663732474b?hhtmFrom=resume_search_result
/resume/fd5481580001da41090039ed1f6d53795a6e57?hhtmFrom=resume_search_result
/resume/7744b58b0001daa2740039ed1f435a4f454f4a?hhtmFrom=resume_search_result
/resume/c8e9d00d0001facaf90039ed1f554765594a51?hhtmFrom=resume_search_result
/resume/f758ae06000208d7070039ed1f5a4369306154?hhtmFrom=resume_search_result
/resume/c4f6252700023e76a50039ed1f686945654a37?hhtmFrom=resume_search_result
/resume/1e766788000244ed950039ed1f53673178446a?hhtmFrom=resume_search_result
/resume/fcea81970002515b2c0039ed1f6e6266775150?hhtmFrom=resume_search_result
/resume/93e8705400029456a00039ed1f70366b615157?hhtmFrom=resume_search_result
/resume/c42c9ce80002ace7d00039ed1f76686c485044?hhtmFrom=resume_search_result
/resume/4f1d4dc50002ba99f80039ed1f66726a526968?hhtmFrom=resume_search_result
/resume/c8f99c990002bb1a640039ed1f32316d665837?hhtmFrom=resume_search_result
/resume/6db38ede0002c7d75e0039ed1f4a4347784e6e?hhtmFrom=resume_search_result
/resume/c58bedb40002cc24b70039ed1f727568744a54?hhtmFrom=resume_search_result
/resume/612c83e60002e0b99e0039ed1f54544c796473?hhtmFrom=resume_search_result
/resume/aa9557570002e68eb30039ed1f4f4c69776a49?hhtmFrom=resume_search_result
/resume/14cba7300002e71d120039ed1f563967745543?hhtmFrom=resume_search_result
/resume/2ff27b580002f5b8730039ed1f705248463770?hhtmFrom=resume_search_result
/resume/6911193f0002f65b2b0039ed1f3942536a5a62?hhtmFrom=resume_search_result
/resume/f7ec5377000311e0770039ed1f355157363135?hhtmFrom=resume_search_result
/resume/9c810a7f000330a03a0039ed1f706c78594a45?hhtmFrom=resume_search_result
/resume/361aa109000332afb60039ed1f706f33416575?hhtmFrom=resume_search_result
/resume/01a44954000334ff9e0039ed1f437a476b6e69?hhtmFrom=resume_search_result
/resume/6e474ab400034b97500039ed1f426232307173?hhtmFrom=resume_search_result
/resume/5463ddf200035408ff0039ed1f635a6f555039?hhtmFrom=resume_search_result
/resume/b88447040003741c5b0039ed1f653756683453?hhtmFrom=resume_search_result
/resume/bc0d3bf500037486160039ed1f7570584b3957?hhtmFrom=resume_search_result
/resume/97ac32440003b67ad90039ed1f764869766d6e?hhtmFrom=resume_search_result
/resume/7045900a00042e41aa0039ed1f734d4c694551?hhtmFrom=resume_search_result
/resume/c33afb7c000486973c0039ed1f677251584d43?hhtmFrom=resume_search_result
/resume/433780c70004d096e70039ed1f4c314c4d5068?hhtmFrom=resume_search_result
/resume/641ceb100004d130ea0039ed1f65655261365a?hhtmFrom=resume_search_result
/resume/7bb121380007546dae0039ed1f736767543442?hhtmFrom=resume_search_result
/resume/e4dd84300001be09910039ed1f35544c76734f?hhtmFrom=resume_search_result
/resume/6e81784e00026e17ea0039ed1f4764795a6c5a?hhtmFrom=resume_search_result
/resume/510c31600004acb3850039ed1f694b59383731?hhtmFrom=resume_search_result
/resume/052625af000522e1c80039ed1f4c4377626b36?hhtmFrom=resume_search_result
/resume/f3f187a40004af317e0039ed1f576544653471?hhtmFrom=resume_search_result
/resume/db405994000516d8d70039ed1f536634554e31?hhtmFrom=resume_search_result
/resume/b2e2ab3e000188e2670039ed1f383279684365?hhtmFrom=resume_search_result
/resume/461be08600018cb8880039ed1f4a414d73326b?hhtmFrom=resume_search_result
/resume/e8643f7500018cd6290039ed1f62435a414d33?hhtmFrom=resume_search_result
/resume/8b8bf8df0001a945050039ed1f6172416a6679?hhtmFrom=resume_search_result
/resume/5633e3e20001ab2e7f0039ed1f6256444e754a?hhtmFrom=resume_search_result
/resume/855f2fba0001b1e8070039ed1f615372774132?hhtmFrom=resume_search_result
/resume/8db8fd750001ba4d310039ed1f727577617731?hhtmFrom=resume_search_result
/resume/6b7f1f250001bcad650039ed1f586973363346?hhtmFrom=resume_search_result
/resume/63487e640001c8c8020039ed1f6b5832657770?hhtmFrom=resume_search_result
/resume/3aebba3c0001d6c3830039ed1f31544d64515a?hhtmFrom=resume_search_result
/resume/eeafa9d40001da94770039ed1f6d6532534946?hhtmFrom=resume_search_result
/resume/6ed5c55f0001e18f960039ed1f355642466b39?hhtmFrom=resume_search_result
/resume/c20badf10001f24d000039ed1f6a3246486330?hhtmFrom=resume_search_result
/resume/c19a25f50001fe6e920039ed1f494d62554d6c?hhtmFrom=resume_search_result
/resume/4eb05aa30001fe82440039ed1f355037484937?hhtmFrom=resume_search_result
/resume/44449c5f00020046b10039ed1f4c597365564d?hhtmFrom=resume_search_result
/resume/5cc5858d000224af520039ed1f4953566b3466?hhtmFrom=resume_search_result
/resume/95c5e29900023ccdfc0039ed1f724938307971?hhtmFrom=resume_search_result
/resume/c51e12930002403f2d0039ed1f4f554b6f5770?hhtmFrom=resume_search_result
/resume/ceb39f7c00024ca01d0039ed1f766559694879?hhtmFrom=resume_search_result
/resume/05dbf04b00026c918f0039ed1f6b3466595969?hhtmFrom=resume_search_result
/resume/4549bd2600027be1840039ed1f6a423743494e?hhtmFrom=resume_search_result
/resume/1f1fede0000289e5500039ed1f77454e7a5a68?hhtmFrom=resume_search_result
/resume/ebb3e5290002925eca0039ed1f586563475671?hhtmFrom=resume_search_result
/resume/ecfa6522000296b7af0039ed1f6b42354e6b45?hhtmFrom=resume_search_result
/resume/027c04ce00029c09560039ed1f436f63436333?hhtmFrom=resume_search_result
/resume/0c954df00002a1c0be0039ed1f6f77326f4c70?hhtmFrom=resume_search_result
/resume/4f10855f0002a6035a0039ed1f6a574f44386c?hhtmFrom=resume_search_result
/resume/afba126e0002a8aeb20039ed1f325633357551?hhtmFrom=resume_search_result
/resume/2c79e2500002bbc4160039ed1f556937626a63?hhtmFrom=resume_search_result
/resume/60fbc9630002d4963e0039ed1f4e366754754d?hhtmFrom=resume_search_result
/resume/3184d80c0002ddba680039ed1f466337475046?hhtmFrom=resume_search_result
/resume/bb62845a0002e189490039ed1f42397777304c?hhtmFrom=resume_search_result
/resume/7e178c330002f7e5b20039ed1f656233496c4e?hhtmFrom=resume_search_result
/resume/f22c85150002f902350039ed1f315a6d656763?hhtmFrom=resume_search_result
/resume/76873f4700032aa8360039ed1f565a314f5162?hhtmFrom=resume_search_result
/resume/0f12163f00036695ca0039ed1f7a5a4c506579?hhtmFrom=resume_search_result
/resume/bec1308d0003716d100039ed1f53576f4a446e?hhtmFrom=resume_search_result
/resume/648b32530003768fc20039ed1f30746a30616d?hhtmFrom=resume_search_result
/resume/10bca3a600038d401e0039ed1f784473664a32?hhtmFrom=resume_search_result
/resume/e1fb6d490003a359f90039ed1f703532536572?hhtmFrom=resume_search_result
/resume/de86bdd80003b42a290039ed1f554950494d65?hhtmFrom=resume_search_result
/resume/ec0e07b90003b5720c0039ed1f55707743384f?hhtmFrom=resume_search_result
/resume/c207b8150003da69840039ed1f79394871534c?hhtmFrom=resume_search_result
/resume/c97d479a0003e132f20039ed1f55465a4d634a?hhtmFrom=resume_search_result
/resume/35d8a58e0005151f0a0039ed1f7a5158384f4c?hhtmFrom=resume_search_result
/resume/9fab4aad00056224050039ed1f68654e544b30?hhtmFrom=resume_search_result
/resume/9a4eff4800058cd96e0039ed1f546a69455065?hhtmFrom=resume_search_result
/resume/3b16fe5b0005b76a920039ed1f636d48627a6e?hhtmFrom=resume_search_result
/resume/8d92bb8c0003a891480039ed1f3554614b4d6c?hhtmFrom=resume_search_result
/resume/c324fc6000024464f80039ed1f574966764263?hhtmFrom=resume_search_result
/resume/49a4bc7000038c33c40039ed1f566a4d644732?hhtmFrom=resume_search_result
/resume/d2b07a490001978bfa0039ed1f31476f4a6357?hhtmFrom=resume_search_result
/resume/424e1750000154fd760039ed1f526950594179?hhtmFrom=resume_search_result
/resume/1271c4e70001918a420039ed1f7a50326d4174?hhtmFrom=resume_search_result
/resume/ce8298990001b3ffd90039ed1f356b4a395746?hhtmFrom=resume_search_result
/resume/8126d23f0001bba7ba0039ed1f627364423638?hhtmFrom=resume_search_result
/resume/5bddbdb60001bf279e0039ed1f776935464346?hhtmFrom=resume_search_result
/resume/72630a3c0001c2cbfd0039ed1f665939395547?hhtmFrom=resume_search_result
/resume/192a13bf0001c5d75d0039ed1f38704532487a?hhtmFrom=resume_search_result
/resume/5597b9ef0001df48ec0039ed1f5666396e4a43?hhtmFrom=resume_search_result
/resume/e5e5ce170001e103410039ed1f546c36695930?hhtmFrom=resume_search_result
/resume/8413e05d00021bfac50039ed1f714875377441?hhtmFrom=resume_search_result
/resume/04d50cb7000229aefd0039ed1f6670594d366c?hhtmFrom=resume_search_result
/resume/a9376883000241008b0039ed1f6e5645746943?hhtmFrom=resume_search_result
/resume/8c2c959f000242dd510039ed1f6b306d53554e?hhtmFrom=resume_search_result
/resume/a9c8ce2b0002575d0d0039ed1f354d434a6c49?hhtmFrom=resume_search_result
/resume/c263ed02000269a64a0039ed1f463065713479?hhtmFrom=resume_search_result
/resume/8ca97906000274207b0039ed1f314571677771?hhtmFrom=resume_search_result
/resume/715a995f00028292270039ed1f733976416b4c?hhtmFrom=resume_search_result
/resume/33a92aa300028776870039ed1f42626e437a4f?hhtmFrom=resume_search_result
/resume/8adf19bf00028962f90039ed1f505571315845?hhtmFrom=resume_search_result
/resume/adc3d33d00028e5bcc0039ed1f4c5a4166614f?hhtmFrom=resume_search_result
/resume/373bbcd50002a4e5250039ed1f773535484432?hhtmFrom=resume_search_result
/resume/7052231e0002a930b20039ed1f615636476145?hhtmFrom=resume_search_result
/resume/49a7779d0002b51c1f0039ed1f794161434d7a?hhtmFrom=resume_search_result
/resume/5f8639f00002c661bb0039ed1f6532654c714f?hhtmFrom=resume_search_result
/resume/c82ddc660002d6e55f0039ed1f705a364c356c?hhtmFrom=resume_search_result
/resume/b85a34ab0002dc892d0039ed1f5037424a3631?hhtmFrom=resume_search_result
/resume/789762170002fa8c250039ed1f717847344b72?hhtmFrom=resume_search_result
/resume/1c545bd6000300700a0039ed1f62734f723258?hhtmFrom=resume_search_result
/resume/7fe366ef000310a3190039ed1f6e30596a3132?hhtmFrom=resume_search_result
/resume/3938c8dd000349351c0039ed1f7256334d6b44?hhtmFrom=resume_search_result
/resume/ce93e1570003b1cd2d0039ed1f744845343847?hhtmFrom=resume_search_result
/resume/d4c99328000418eb970039ed1f44575270434c?hhtmFrom=resume_search_result
/resume/1f4220ca0004425c210039ed1f787779476b65?hhtmFrom=resume_search_result
/resume/5627e67d00044500500039ed1f6b6577707878?hhtmFrom=resume_search_result
/resume/21c9363700044616410039ed1f795352315144?hhtmFrom=resume_search_result
/resume/56aca76f00045d88b80039ed1f6d385164306e?hhtmFrom=resume_search_result
/resume/0df084d100050592b20039ed1f6b6548485467?hhtmFrom=resume_search_result
/resume/dce843b100056d299e0039ed1f4c7159336969?hhtmFrom=resume_search_result
/resume/3d058c0a0004fbc8140039ed1f347774414f66?hhtmFrom=resume_search_result
/resume/c128f3c90000911e660039ed1f736563726574?hhtmFrom=resume_search_result
/resume/cce95a36000208a9d50039ed1f336665674261?hhtmFrom=resume_search_result
/resume/caf2f3340004f46e820039ed1f7030744a4757?hhtmFrom=resume_search_result
/resume/44baf91e00023ce5e80039ed1f544d7668726a?hhtmFrom=resume_search_result
/resume/502db28200024e69f40039ed1f355971437444?hhtmFrom=resume_search_result
/resume/f44d659f00029493140039ed1f6663744d4b51?hhtmFrom=resume_search_result
/resume/2519b43a00029ef3310039ed1f7967436a4872?hhtmFrom=resume_search_result
/resume/9788391e0002a008390039ed1f68417655486e?hhtmFrom=resume_search_result
/resume/94f02674000308bfda0039ed1f636f43724f4f?hhtmFrom=resume_search_result
/resume/850665fb000425545d0039ed1f6e6a5a70444b?hhtmFrom=resume_search_result
/resume/5f7553f500045d96590039ed1f6e4234555049?hhtmFrom=resume_search_result
/resume/3c5480a00007689e2d0039ed1f4d56524c4d66?hhtmFrom=resume_search_result
/resume/cf45f8ea0000995e7f0039ed1f736563726574?hhtmFrom=resume_search_result
/resume/2c6ed00b0001c366970039ed1f447a3479706c?hhtmFrom=resume_search_result
/resume/6da3393b0001ea67930039ed1f6a507133506a?hhtmFrom=resume_search_result
/resume/b1610c2d00031b33e10039ed1f3133337a626a?hhtmFrom=resume_search_result
/resume/bd89ca0b0005ab9a600039ed1f386331675a6d?hhtmFrom=resume_search_result
/resume/3ee5eee800029dc0140039ed1f623045584759?hhtmFrom=resume_search_result
/resume/a786a49d0003e950290039ed1f48424e79564d?hhtmFrom=resume_search_result
/resume/9e38d8b80002bb3b910039ed1f4a6977496d37?hhtmFrom=resume_search_result
/resume/dabd79c50007b0015b0039ed1f5074746d534a?hhtmFrom=resume_search_result
/resume/70b10a1200075bd1670039ed1f317568793033?hhtmFrom=resume_search_result
/resume/7c1258490006e0e51b0039ed1f386d7a4c7a64?hhtmFrom=resume_search_result
/resume/8f61716200060674070039ed1f3936327a7333?hhtmFrom=resume_search_result
/resume/1706dec900022c17e80039ed1f6c7156773467?hhtmFrom=resume_search_result
/resume/558fc01200023c4f840039ed1f4472746d6c47?hhtmFrom=resume_search_result
/resume/61e2c9b70002452ca70039ed1f79316b503747?hhtmFrom=resume_search_result
/resume/ca1fc0da00025499ec0039ed1f41364f4a7841?hhtmFrom=resume_search_result
/resume/a477734a0002b469f60039ed1f57506e4b6147?hhtmFrom=resume_search_result
/resume/54baaf120003be9e2d0039ed1f31416555336c?hhtmFrom=resume_search_result
/resume/82b818870003f60e710039ed1f497145623262?hhtmFrom=resume_search_result
/resume/1100d41000047382ed0039ed1f506f374f4774?hhtmFrom=resume_search_result
/resume/7911a901000486ff170039ed1f423674307242?hhtmFrom=resume_search_result
/resume/99fe67450004e890b80039ed1f66547848594d?hhtmFrom=resume_search_result
/resume/a170ea360004f744830039ed1f4f4a53565935?hhtmFrom=resume_search_result
/resume/5c6bd81c000519f23e0039ed1f655a72476653?hhtmFrom=resume_search_result
/resume/980ded0500022c3f310039ed1f4e64484b7061?hhtmFrom=resume_search_result
/resume/73ac5eaf0002e318b10039ed1f553574614547?hhtmFrom=resume_search_result
/resume/2ce1fa32000392ae580039ed1f73755145506e?hhtmFrom=resume_search_result
/resume/04ae2be60001f153370039ed1f46684b353374?hhtmFrom=resume_search_result
/resume/f80884dc0001a8edf90039ed1f6670586f6155?hhtmFrom=resume_search_result
/resume/58ba463200055cd1710039ed1f54555332796a?hhtmFrom=resume_search_result
/resume/a8ddf89000047218750039ed1f4a7764546f37?hhtmFrom=resume_search_result
/resume/f0a6c78400041ddfa80039ed1f6e31684a3946?hhtmFrom=resume_search_result
/resume/3fd2e8e6000185b3d50039ed1f575a726f4e46?hhtmFrom=resume_search_result
/resume/907e4f4b0001ff94150039ed1f6d6932675951?hhtmFrom=resume_search_result
/resume/c02befd600022127ce0039ed1f68744834676e?hhtmFrom=resume_search_result
/resume/8241bf4d00025258ac0039ed1f7544736b6235?hhtmFrom=resume_search_result
/resume/849ef4500002f1ab0c0039ed1f4f327732776b?hhtmFrom=resume_search_result
/resume/19326b9f0003c302060039ed1f484844354662?hhtmFrom=resume_search_result
/resume/711df6c2000418ea130039ed1f47386a516673?hhtmFrom=resume_search_result
/resume/9b93f337000559509c0039ed1f4453444c3969?hhtmFrom=resume_search_result
/resume/d18303ea0001b9c5aa0039ed1f52516c757178?hhtmFrom=resume_search_result
/resume/332c768d00007f73e80039ed1f736563726574?hhtmFrom=resume_search_result
/resume/4f47790f000202d83b0039ed1f696178557769?hhtmFrom=resume_search_result
/resume/8664d36700043ff31d0039ed1f4c6c69377277?hhtmFrom=resume_search_result
